newline
அசாம் NN l
மாநிலம் NN 
கோஹ்புர் NN l
மற்றும் CC 
மோரன் NN l
பகுதிகளில் NN 
பிரதமர் NN 
நரேந்திர JJ p
மோடி NN p
நேற்று RB other
தேர்தல் NN other
பிரசாரத்தில் NN other
ஈடுபட்டார் VM  other
. SYM other
newline
உந்க் NN other
newline
newline
முந்தைய JJ other
காங்கிரச் NNP other
அரசு NN other
அசாமை NN l
மீண்டும் RB other
அதன் PRP other
பழைய JJ other
பிரச்சினைகளுக்குள் NN other
தள்ளிவிட்டனர் VM other
. SYM other
newline
உந்க் NN other
newline
newline
வங்காளதேச JJ other
போரின்போது NN 
ஜனசங்கத்தில் NN p
இருந்த VM other
வாஜ்பாய் NN other
போன்ற JJ other
தலைவர்கள் NN other
நிரந்தர VM other
தீர்வுக்காக RB other
குரல் NN other
கொடுத்தனர் VM  other
. SYM other
newline
உந்க் NN other
newline
newline
அசாம் NN l
மற்றும் CC 
வடகிழக்கு NN other
மாகாணங்களில் NN other
கிளர்ச்சி NN other
ஆரம்பக்கட்டத்தில் NN other
இருந்தபோதே VM other
அதனை PRP other
கையாள்வதில் NN other
காங்கிரச் NNP o
தவறான JJ other
கொள்கையை NN other
கடைபிடித்தது VM  other
. SYM other
newline
உந்க் NN other
newline
newline
இந்த DEM other
காவலாளி NN other
அந்த DEM other
வரலாற்று NN other
தவறுகளை NN other
சரிசெய்ய JJ other
முயற்சிக்கிறார் VM other
. SYM other
newline
உந்க் NN other
newline
newline
ஒட்டுமொத்த JJ other
உலகமே NN other
நமக்கு PRP other
ஆதரவாக RB other
நிற்கிறது VM  other
. SYM other
newline
உந்க் NN other
newline
newline
நீங்கள் PRP other
நாட்டுக்கு NN other
ஒரு QC other
பிரதமரை NN other
10 QC other
ஆண்டுகளுக்கு NN other
வழங்கினீர்கள் VM  other
. SYM other
newline
உந்க் NN other
newline
newline
ஒரு QC other
கையில் NN other
இந்த DEM other
வலிமையான JJ other
காவலாளியையும் NN other
, SYM other
மற்றொரு JJ other
கையில் NN other
கலவையான JJ other
குடும்பத்தினரையும் NN other
வைத்து VM other
பாருங்கள் VAUX other
. SYM other
newline
உந்க் NN other
newline
newline
முன்னதாக RB other
அருணாசல JJ other
பிரதேசம் NN other
இடாநகரில் NN other
பிரதமர் NN other
மோடி NN other
பேசியதாவது VM other
: SYM other
- SYM other
உந்க் NN other
newline
newline
உந்க் NN other
newline
newline
துல்லிய JJ other
தாக்குதல் NN other
நடத்தியபோது VM  other
, SYM other
நமது PRP other
விஞ்ஞானிகள் NN other
உலகையே NN other
வியக்க VM other
வைத்தனர் VM  other
. SYM other
newline
உந்க் NN other
newline
newline
இந்தியாவில் NNP l
அவர்களது PRP other
குரலை NN other
அங்கீகரிக்க VM  other
newline
உந்க் NN other
newline
newline
காங்கிரசும் NN  o
, SYM other
ஊழலும் NN other
கடந்த VM other
55 QC other
ஆண்டுகளாக RB other
ஒன்றாக RB other
இணைந்து VM other
உள்ளது VAUX  other
. SYM other
newline
உந்க் NN other
newline
newline
இந்த DEM other
5 QC other
வருட JJ other
ஆட்சியில் NN other
கிடைத்த VM other
அனுபவத்தின் NN other
மூலம் PSP other
, SYM other
அடுத்த JJ other
5 QC other
ஆண்டுகளில் NN other
25 QC other
ஆண்டுகளுக்கு NN other
தேவையான JJ other
அடிப்படை NN other
வளர்ச்சிகளை NN other
செய்ய VM other
திட்டமிட்டு VM other
இருக்கிறேன் VM  other
. SYM other
newline
உந்க் NN other
newline
newline
தற்போதைய JJ other
நாடாளுமன்ற JJ other
தேர்தலில் NN other
சுற்றுச்சூழல் NN other
பாதுகாப்பு NN other
அரசியல் NN other
கட்சிகளின் NN other
முக்கிய JJ other
வாக்குறுதிகளில் NN other
ஒன்றாக RB other
திகழ்கிறது VM other
. SYM other
newline
உந்க் NN other
newline
newline
இந்நிலையில் NN other
காங்கிரச் NNP other
கட்சியின் NN other
அகில JJ other
இந்திய JJ 
தலைவர் NN other
ராகுல் NN p
காந்தி NNP p
நேற்று NN other
தன்னுடைய PRP other
டுவிட்டர் NN other
பக்கத்தில் NN other
கூறியிருப்பதாவது VM other
: SYM other
- SYM other
உந்க் NN other
newline
newline
உந்க் NN other
newline
newline
காங்கிரச் NNP o
கட்சி NN o
ஆட்சிக்கு NN other
வந்தால் VM other
சுற்றுச்சூழலை NN other
மேம்படுத்த VM other
ஒரு QC other
லட்சம் NN other
கிராமப்புற JJ other
இளைஞர்களுக்கு NN other
வேலைவாய்ப்பு NN other
அளிக்க VM other
நடவடிக்கை NN other
எடுக்கப்படும் VM other
. SYM other
newline
உந்க் NN other
newline
newline
எங்கள் PRP other
தேர்தல் NN other
அறிக்கையில் NN  other
, SYM other
வேலைவாய்ப்பை NN other
உருவாக்குதல் NN other
, SYM other
விவசாயிகளின் NN other
துயரத்தை NN other
போக்குதல் NN  other
, SYM other
கல்வியின் NN other
தரத்தை NN other
மேம்படுத்துதல் NN other
, SYM other
சுகாதாரத்தை NN other
பேணிகாத்தல் NN other
, SYM other
பொருளாதார JJ other
வளர்ச்சியை NN other
மேம்படுத்த VM other
வழிகாட்டுதல் NN other
, SYM other
சுற்றுச்சூழல் NN other
பாதுகாப்பு NN other
ஆகியவை NN other
முக்கிய JJ other
அம்சங்களாக RB other
இருக்கும் VM  other
. SYM other
newline
உந்க் NN other
newline
newline
தூத்துக்குடி NNP other
நாடாளுமன்ற JJ other
தொகுதி NN other
பா NN  other
. SYM other
newline
உந்க் NN other
newline
newline
பிரசாரத்தின்போது NN other
தமிழிசை NN p
சவுந்தரராஜன் NNP p
பேசியதாவது VM other
: SYM other
- SYM other
உந்க் NN other
newline
newline
தி NN  other
. SYM other
newline
உந்க் NN other
newline
newline
இந்த DEM other
பகுதி NN other
மக்களுக்கு NN other
அனைத்து JJ other
வசதிகளும் NN other
கிடைக்க VM other
வேண்டும் VAUX other
என்ற VM other
எண்ணத்தில் NN other
நாங்கள் PRP other
இங்கு RB other
போட்டியிடுகிறோம் VM other
. SYM other
newline
உந்க் NN other
newline
newline
முன்னதாக RB other
தமிழிசை NN other
சவுந்தரராஜன் NNP other
நிருபர்களுக்கு NN other
பேட்டி NN other
அளித்தார் VM  other
. SYM other
newline
உந்க் NN other
newline
newline
நான் PRP other
தோல்வி NN other
பயத்தில் NN other
தூத்துக்குடிக்கு NN other
புல்லட் NN other
ரெயில் NN other
கொண்டு VM other
வருவதாக RB other
கூறியதாக RB other
கனிமொழி NN other
தெரிவித்து VM other
உள்ளார் VM other
. SYM other
newline
உந்க் NN other
newline
newline
பா NN  other
. SYM other
newline
உந்க் NN other
newline
newline
நாடு NN other
விண்வெளியில் NN other
முன்னேறியிருக்கிறது VM other
என்பதை UT other
பிரதமர் NN 
நரேந்திர JJ p
மோடி NN p
கூறியிருப்பது VM other
தேர்தல் NN other
விதிமுறை NN other
மீறல் NN other
newline
உந்க் NN other
newline
newline
எச் NN other
. SYM other
newline
உந்க் NN other
newline
newline
கிருஷ்ண NNP other
பகவான் NNP other
குறித்து RB other
தெரிவித்த VM other
கருத்துக்கு NN other
திராவிடர் NN other
கழக JJ other
தலைவர் NN other
கி VM other
. SYM other
newline
உந்க் NN other
newline
newline
தி NN other
. SYM other
newline
உந்க் NN other
newline
newline
பிரதமர் NN other
நரேந்திர JJ p
மோடி NN p
வருகிற VM other
8 QC other
- SYM other
ந்தேதி NN other
கோவையில் NN other
நடைபெறும் VM other
கூட்டத்தில் NN other
பங்கேற்று VM other
உரையாற்றுகிறார் VM other
. SYM other
newline
உந்க் NN other
newline
newline
துரைமுருகன் NNP other
வீட்டில் NN other
வருமான JJ other
வரி NN other
சோதனைக்கும் VM other
மத்திய JJ other
அரசுக்கும் NN other
எந்த DEM other
தொடர்பும் NN other
newline
உந்க் NN other
newline
newline
தமிழக JJ other
தலைமை NN other
தேர்தல் NN other
அதிகாரி NN other
சத்யபிரதா NNP other
சாஹூ NN other
இன்று NN other
தலைமை NN other
செயலகத்தில் NN other
நிருபர்களிடம் NN other
கூறியது VM other
அதாவது RB other
கூறியது VM other
அதாவது RB other
 SYM other
- SYM other
உந்க் NN other
newline
newline
உந்க் NN other
newline
newline
" SYM other
இந்திய JJ other
தலைமை NN other
தேர்தல் NN other
ஆணையர் NN other
சுனில் NN other
அரோரா NN other
ஏப்.2 NN d
ம் SYM other
தேதி NN other
தமிழகம் NN other
வர VM other
உள்ளார் VM other
. SYM other
newline
உந்க் NN other
newline
newline
ஏப்ரல் NN d
3 QC d
ம் SYM other
தேதி NN other
காலை NN other
9.30 QC t
மணிக்கு NN other
மாவட்ட JJ other
ஆட்சியர்கள் NN other
, SYM other
எச் NN  other
. SYM other
newline
உந்க் NN other
newline
newline
ஏப்ரல் NN d
3 QC d
ம் SYM other
தேதி NN other
மதியம் NN other
தலைமைச்செயலாளர் NN other
, SYM other
டிஜிபி NN other
, SYM other
வருமான JJ other
வரித்துறை NN other
செயலாளருடன் NN other
ஆரோரா JJ other
ஆலோசனை NN other
நடத்துகிறார் VM other
. SYM other
newline
உந்க் NN other
newline
newline
தமிழகத்தில் NN other
மார்ச் NN d
29 QC d
ம் SYM other
தேதி NN other
வரை PSP other
70.90 QC 
கோடி NN other
பறிமுதல் NN other
செய்யப்பட்டு VM other
உள்ளது VAUX  other
. SYM other
newline
உந்க் NN other
newline
newline
88 QC other
கோடி NN other
மதிப்பிலான JJ other
தங்கம் NN other
, SYM other
வெள்ளி NN other
பொருட்களும் NN other
பறிமுதல் NN other
செய்யப்பட்டு VM other
உள்ளது VAUX other
. SYM other
newline
உந்க் NN other
newline
newline
என்று RB other
கூறினார் VM  other
. SYM other
newline
உந்க் NN other
newline
newline
இந்திய JJ other
விண்வெளி NN other
ஆய்வு NN other
நிறுவனத்தின் NN other
உந்க் NN other
newline
newline
உந்க் NN other
newline
newline
செயற்கைக்கோளைத் NN other
தாக்கி VM other
அழித்துவிடும் VM other
தொழில்நுட்பத்தை NN other
இந்தியா NNP l
வெற்றிகரமாக RB other
புதன்கிழமை NN other
பரிசோதித்ததாக RB other
இந்திய JJ l
பிரதமர் NN 
நரேந்திர JJ p
மோதி NN p
அறிவித்த VM other
பின்னர் NN other
, SYM other
இந்த DEM other
புகைப்படம் NN other
இந்த DEM other
செய்தியோடு NN other
பகிரப்பட்டு VM other
வருகிறது VAUX other
. SYM other
newline
உந்க் NN other
newline
newline
புதன்கிழமை NN other
இந்தியாவின் NNP other
பிரதமர் NN other
நரேந்திர JJ p
மோதி NN p
திடீரென RB other
நாட்டு NN other
மக்களுக்கு NN other
ஆற்றிய VM other
உரையில் NN other
, SYM other
இந்தியா NNP l
ஒரு QC other
விண்வெளி NN other
வல்லரசாக RB other
ஏற்கனவே RB other
உருவெடுத்துள்ளது VM other
என்று UT other
கூறினார் VM other
. SYM other
newline
உந்க் NN other
newline
newline
இந்த DEM other
நடவடிக்கையை NN other
வலதுசாரி NN other
சமூக JJ other
ஊடகப் JJ other
பக்கங்கள் NN other
பல QF other
புகழ்ந்துள்ளன VM other
. SYM other
newline
உந்க் NN other
newline
newline
இதன் PRP other
விளைவாக RB other
, SYM other
சில QF other
வலதுசாரி NN other
சமூக JJ other
ஊடகப் JJ other
பக்கங்கள் NN other
காங்கிரச் NN o
கட்சியை NN o
இலக்கு NN other
வைத்து VM other
, SYM other
குறிப்பாக RB other
இந்தியாவின் NN other
முன்னாள் NN other
பிரதமர் NNP other
இந்திரா NNP p
காந்தியின் NNP p
குடும்பத்தை NN other
இலக்கு NN other
வைத்து VM other
தாக்கி VM other
பதிவிட VM other
தொடங்கின VM other
. SYM other
newline
உந்க் NN other
newline
newline
அவர்களது PRP other
கருத்தை NN other
நிரூபிப்பதற்கு VM other
, SYM other
கீழ்காணும் NN l
படத்தை NN other
பயன்படுத்தியுள்ளனர் VM other
. SYM other
newline
உந்க் NN other
newline
newline
மேலிருக்கும் NN other
புகைப்படத்தில் NN other
இச்ரோவின் NN o
முதலாவது QO other
செயற்கைக்கோளான JJ other
" SYM other
ஆப்பிள் NN 
" SYM other
மாட்டு NNC other
வண்டியில் NN other
எடுத்துச் VM other
செல்லப்படுகிறது VAUX other
. SYM other
newline
உந்க் NN other
newline
newline
கீழுள்ள JJ other
புகைப்படத்தில் NN other
சிறியதொரு JJ other
விமானத்தில் NN other
ராகுல் NN p
காந்தியின் NNP p
பிறந்த VM other
நாள் NN other
கொண்டாடப்படுவது VM other
காட்டப்படுகிறது VM other
. SYM other
newline
உந்க் NN other
newline
newline
ராகுல் NN p
காந்தியின் NNP p
சகோதரி NN other
பிரியங்கா NN other
காந்தி NNP other
, SYM other
தாய் NN other
சோனியா NNP other
காந்தி NNP other
, SYM other
பாட்டி VM other
இந்திரா NNP other
காந்தி NNP other
ஆகியோரும் NN other
இந்த DEM other
புகைப்படத்தில் NN other
உள்ளனர் VM other
. SYM other
newline
உந்க் NN other
newline
newline
" SYM other
இச்ரோ NN o
செய்த VM other
ராக்கெட்டை NNP other
மாட்டு NNC other
வண்டியில் NN other
ஏற்றிச் VM other
சென்றபோது VM other
, SYM other
சிறியதொரு JJ other
விமானத்தில் NN other
இந்திரா NNP other
காந்தி NNP other
குடும்பம் NN other
பிறந்த VM other
நாளை NN other
ஆடம்பரமாக RB other
கொண்டாடியதை VM other
ஒருபோதும் NN other
மறக்காதீர்கள் NN other
, SYM other
" SYM other
என்று UT other
இந்த DEM other
புகைப்படத்தில் NN other
எழுதப்பட்டு VM other
உள்ளது VM other
. SYM other
newline
உந்க் NN other
newline
newline
இச்ரோ NN o
விஞ்ஞானிகள் NN other
தங்களின் PRP other
பணித்திட்டங்களுக்கு NN other
மாட்டு NNC other
வண்டியை NN other
பயன்படுத்தியபோது VM other
, SYM other
ஆடம்பரமான JJ other
முறையில் NN other
பணத்தை NN other
செலவிட்டுள்ளதாக RB other
காங்கிரச் NNP o
கட்சியை NN o
இலக்கு NN other
வைத்து VM other
சமூக JJ other
ஊடகங்களில் NN other
பதிவிட்டுள்ளனர் VM other
. SYM other
newline
உந்க் NN other
newline
newline
ஆனால் CC other
, SYM other
மூத்த JJ other
அறிவியல் NN other
எழுத்தாளர் NN other
பல்லவ JJ other
பாகலா NNP other
, SYM other
அப்போது RB other
இத்தகைய JJ other
பணித்திட்டங்களுக்கு NN other
நிபுணர்கள் NN other
மாட்டு NNC other
வண்டியை NN other
பயன்படுத்த VM other
விரும்பியே RB other
பயன்படுத்தியுள்ளதாக RB other
கூறுகிறார் VM other
. SYM other
newline
உந்க் NN other
newline
newline
அவர் PRP other
பிபிசியிடம் NN other
கருத்து VM other
தெரிவிக்கையில் NN other
, SYM other
" SYM other
அந்நேரத்தில் NN other
, SYM other
மின்காந்த JJ other
குறுக்கீடு NN other
பிரதிபலிப்புகள் NN other
பற்றிய VM other
முழுமையாக RB other
புரிதல் NN other
இருக்க VM other
newline
உந்க் NN other
newline
newline
இச்ரோவின் NN o
பணித்திட்டங்களை NN other
நிறைவேற்றுவதற்கு VM other
அதனிடம் PRP other
இருக்கும் VM other
மூலவளங்களை NN other
பற்றி RB other
பேசுகையில் NN other
, SYM other
" SYM other
எந்தவொரு NN other
ஆளும் VM other
கட்சியாலும் NN other
, SYM other
குறிப்பாக RB other
எந்தவொரு NN other
பணித்திட்டத்தையும் NN other
நிறைவேற்றுவதற்கு VM other
இச்ரோ NN o
மூலவள JJ other
பற்றாக்குறையை NN other
எதிர்கொள்ள VM other
இல்லை NEG other
" SYM other
என்று UT other
தன்னிடம் PRP other
தெரிவிக்கப்பட்டதாக RB other
பல்லவ JJ other
பாகலா NN other
கூறியுள்ளார் VM other
. SYM other
newline
உந்க் NN other
newline
newline
புதர் NNP other
காடுகள் NN other
மற்றும் CC other
மலைகள் NN other
சூழ VM other
இருக்கும் VM other
தருமபுரி NNP l
ஒரு QC other
காலத்தில் NN other
செயல்பாடுகள் NN other
ரீதியாக RB other
நக்சல்கள் NN o
வலுவாக RB other
இருந்த VM other
பகுதி NN other
. SYM other
newline
உந்க் NN other
newline
newline
இப்போது RB other
சாதிய JJ other
கலவரங்களால் NN other
கலவரங்களால் NN other
தருமபுரியின் NNP other
நாயக்கன்கொட்டாய் NN other
ஒரு QC other
காலத்தில் NN other
நக்சல்கள் NN other
செயல்பாடுகளுக்காகவே RB other
அறியப்பட்டது VM other
. SYM other
newline
உந்க் NN other
newline
newline
1980 QC d
களில் NN other
எம் NN other
. SYM other
newline
உந்க் NN other
newline
newline
சரி NN other
. SYM other
newline
உந்க் NN other
newline
newline
1977 QC other
ஆம் QO other
ஆண்டுக்கு NN other
முன்பு RB other
வரை PSP other
மேட்டூர் NNP other
மக்களவைத் NN other
தொகுதியில் NN other
தருமபுரி NNP other
இருந்தது VM other
. SYM other
newline
உந்க் NN other
newline
newline
தற்போது RB other
தருமபுரி NNP l
மக்களவைத் NN other
தொகுதியில் NN other
தருமபுரி NNP l
, SYM other
பென்னாகரம் NN other
, SYM other
பாலக்கோடு NN other
, SYM other
அரூர் NNP other
உந்க் NN other
newline
newline
உந்க் NN other
newline
newline
இவற்றில் PRP other
, SYM other
பென்னாகரம் NN other
மற்றும் CC other
தருமபுரி NNP other
பேரவைத் NN other
தொகுதிகளில் NN other
திமுகவைச் NN o
சேர்ந்தோர் VM other
சட்டப் JJ other
பேரவை NN other
உறுப்பினர்களாக RB other
உள்ளனர் VM other
. SYM other
newline
உந்க் NN other
newline
newline
இடதுசாரிகள் NN other
வலுவாக RB other
இருக்கும் VM other
தொகுதி NN other
என்று UT other
அறியப்பட்ட VM other
நாகப்பட்டினம் NNP other
, SYM other
நாடாளுமன்ற JJ other
தொகுதியாக RB other
1957 QC d
ஆம் QO other
ஆண்டு NN other
உருவாக்கப்பட்டது VM other
. SYM other
newline
உந்க் NN other
newline
newline
மீனவர்களும் NN other
, SYM other
ஏராளமான JJ other
விவசாய JJ other
கூலிகளும் NN other
நிறைந்து VM other
இருக்கும் VM other
தொகுதி NN other
இது PRP other
. SYM other
newline
உந்க் NN other
newline
newline
கடந்த VM other
காலங்களில் NN other
காத்திரமான JJ other
பல QF other
விவசாய JJ other
போராட்டங்களை NN other
இந்தத் DEM other
தொகுதி NN other
சந்தித்திருக்கிறது VM other
. SYM other
newline
உந்க் NN other
newline
newline
தமிழக JJ other
வரலாற்று NN other
பக்கங்களில் NN other
கருப்பு NN other
பிரதியாக RB other
இருக்கிறது VM other
கீழ்வெண்மணி NN other
சம்பவம் NN other
. SYM other
newline
உந்க் NN other
newline
newline
இந்த DEM other
தொகுதி NN other
கடந்த VM other
காலங்களில் NN other
இடதுசாரிகளின் NN other
கோட்டையாக RB other
இருக்க VM other
காரணம் NN other
பி VM other
. SYM other
newline
உந்க் NN other
newline
newline
இப்படியாக RB other
இயல்பாக RB other
அந்த DEM other
பகுதி NN other
இடதுசாரிகளின் NN other
வசமாக RB other
ஆனது VM other
. SYM other
newline
உந்க் NN other
newline
newline
சுதந்திர JJ other
இந்தியாவின் NN other
முதல் QC other
பொதுத்தேர்தலில் NN other
மொத்த VM other
நாடாளுமன்றத் JJ other
தொகுதிகளின் NN other
எண்ணிக்கை NN other
489. NN 
இதில் PRP other
தலித்துகள் NN other
, SYM other
பழங்குடிகளுக்கு NN other
ஆன JJ other
ஒதுக்கீடு NN other
94. QC other
உந்க் NN other
newline
newline
உந்க் NN other
newline
newline
இந்த DEM other
ஒதுக்கீட்டில் NN other
சில QF other
தொகுதிகளில் NN other
தலித் NN other
/ SYM other
பழங்குடி NNP other
வேட்பாளர்கள் NN other
மட்டுமே RB other
நிற்கும் VM other
முறையும் NN other
சில QF other
தொகுதிகளில் NN other
இரட்டை NNC other
உறுப்பினர் NN other
முறையும் NN other
- SYM other
அதாவது RB other
ஒரே JJ other
தொகுதியில் NN other
பொது NNC other
உறுப்பினர் NN other
ஒருவர் NN other
, SYM other
தலித் NN other
/ SYM other
பழங்குடி NNP other
உறுப்பினர் NN other
ஒருவர் NN other
எனத் UT other
தேர்ந்தெடுக்கும் VM other
முறையும் NN other
- SYM other
இருந்தன VM other
. SYM other
newline
உந்க் NN other
newline
newline
1961 QC other
ஆம் QO other
ஆண்டு NN other
இரட்டை NNC other
உறுப்பினர் NN other
தொகுதி NN other
ஒழிப்புச் NN other
சட்டம் NN other
கொண்டுவரப்பட்டது VM other
. SYM other
newline
1977 QC other
ஆம் QO other
ஆண்டு NN other
நடந்த VM other
நாடாளுமன்ற JJ other
தேர்தலில் NN other
வென்ற VM other
எச் NN other
. SYM other
newline
உந்க் NN other
newline
newline
1979 QC other
ஆம் QO other
ஆண்டு NN other
நடந்த VM other
இடைத்தேர்தலில் NN other
கம்யூனிச்ட் NN o
கட்சியை NN o
திமுக VM o
ஆதரித்தது VAUX other
. SYM other
newline
கிட்டத்தட்ட JJ other
எவ்வித JJ other
அரசியல் NN other
முன் NN other
அனுபவமும் NN other
இல்லாத NEG other
ஜுசானா NN p
, SYM other
தன்னை PRP other
எதிர்த்து VM other
நாட்டின் NN other
ஆளும் VM other
கட்சி NN other
முன்னிறுத்திய VM other
வேட்பாளரான JJ other
மார்ச் NN p
செஃபோகோவிக்கை NN p
வீழ்த்தி VM other
புதிய JJ other
வரலாற்றை NN other
படைத்துள்ளார் VM other
. SYM other
newline
உந்க் NN other
newline
newline
முன்னதாக RB other
, SYM other
இந்த DEM other
தேர்தல் NN other
நன்மைக்கும் NN other
, SYM other
தீமைக்கும் NN other
இடையிலான JJ other
போர் NN other
என்று UT other
அவர் PRP other
கூறியிருந்தார் VM other
. SYM other
newline
உந்க் NN other
newline
newline
கடந்த VM other
ஆண்டு NN other
ச்லோவேக்கியாவில் NN other
புலனாய்வு NN other
பத்திரிகையாளர் NN other
ஒருவர் NN other
கொல்லப்பட்டதை VM other
தொடர்ந்து VM other
இந்த DEM other
தேர்தல் NN other
நடைபெற்றது VM other
. SYM other
newline
உந்க் NN other
newline
newline
ஜன் NNP p
குசியாக் NNP p
என்ற VM other
அந்த DEM other
பத்திரிகையாளர் NN other
கடந்த VM other
ஆண்டு NN other
பிப்ரவரி NN other
மாதம் NN other
ச்லோவேக்கியாவின் NN l
அரசியல்வாதிகளுக்கும் NN other
, SYM other
திட்டமிட்டு VM other
நடத்தப்பட்டதாக RB other
கருதப்படும் VM other
குற்றங்களுக்கும் VM other
இடையிலான JJ other
தொடர்புகள் NN other
குறித்து RB other
ஆய்வு NN other
நடத்தியபோது VM other
தன்னுடைய PRP other
வருங்கால JJ other
மனைவியுடன் NN other
சேர்த்து VM other
சுட்டுக் VM other
கொல்லப்பட்டார் VAUX other
. SYM other
newline
இந்நிலையில் NN other
, SYM other
தான் PRP other
அதிபர் NN other
தேர்தலில் NN other
போட்டியிடுவது VM other
தொடர்பாக RB other
முடிவெடுத்ததற்கு VM other
குசியாக்கின் NN other
மரணம் NN other
ஒரு QC other
முக்கிய JJ other
காரணம் NN other
என்று UT other
ஜுசானா NN p
கூறியிருந்தார் VM other
. SYM other
newline
உந்க் NN other
newline
newline
தேர்தலில் NN other
பதிவான JJ other
வாக்குகள் NN other
பெரும்பாலும் RB other
எண்ணப்பட்டு VM other
உள்ள PSP other
நிலையில் NN other
, SYM other
ஆளும் NN other
கட்சியின் NN other
தரப்பில் NN other
நிறுத்தப்பட்ட VM other
வேட்பாளர் NN other
42 QC other
சதவீத JJ other
வாக்குகளை NN other
பெற்றிருந்த VM other
நிலையில் NN other
, SYM other
ஜுசானா NN p
58 QC other
சதவீத JJ other
வாக்குகளுடன் NN other
வரலாற்று NN other
சிறப்புமிக்க VM other
வெற்றியை NN other
பதிவு NN other
செய்தார் VM other
. SYM other
newline
உந்க் NN other
newline
newline
சட்டவிரோதமாக RB other
நிலத்தில் NN other
குப்பைகளை NN other
குவித்தது VM other
தொடர்பாக RB other
ச்லோவேக்கியாவில் NN l
14 QC other
ஆண்டுகள் NN other
நடந்த VM other
வழக்கொன்றை NN other
முன்னின்று RB other
எடுத்து VM other
சென்ற VM other
ஜுசானா NNP p
, SYM other
அதில் PRP other
பெற்ற VM other
வெற்றியின் NN other
மூலம் PSP other
நாடுமுழுவதும் NN other
சிறந்த VM other
வழக்கறிஞராக RB other
அறியப்பட்டார் VM other
. SYM other
newline
உந்க் NN other
newline
newline
ச்லோவேக்கியாவின் NN l
நாடாளுமன்றத்தில் NN other
ஓர் QC other
உறுப்பினரை NN other
கூட PSP other
கொண்டிராத NEG other
தாராளவாத NEG other
முற்போக்கு NN other
கட்சியின் NN other
சார்பாக RB other
போட்டியிட்டு VM other
வெற்றிபெற்றுள்ள JJ other
45 QC other
வயதான JJ other
ஜுசானா NN p
விவகாரத்து NN other
ஆனவர் VM other
. SYM other
newline
இதுவரை PRP other
ஓரினச்சேர்க்கையாளர்கள் NN other
திருமணமும் NN other
, SYM other
குழந்தைகளை NN other
தத்தெடுப்பதும் VM other
சட்டவிரோதமாக RB other
உள்ள PSP other
இந்நாட்டில் NN other
, SYM other
அதற்கு PRP l
மாறுபட்ட VM other
நிலைப்பாட்டை NN other
ஜூசானா NN p
கொண்டுள்ளார் VM other
. SYM other
newline
உந்க் NN other
newline
newline
ஜூசானாவை NN p
எதிர்த்து VM other
போட்டியிட்ட VM other
செஃபோகோவிக் VM o
ஐரோப்பிய JJ l
ஆணையத்தின் NN other
துணைத் NN other
தலைவராக RB other
உள்ளார் VM other
. SYM other
newline
உந்க் NN other
newline
newline
பத்திரிகையாளர் NN other
குசியாக்கின் NN other
மரணத்தை NN other
தொடர்ந்து VM other
ச்லோவேக்கியாவின் NN l
பிரதமர் NN other
பதவியிலிருந்து NN other
விலகிய VM other
பிக்கோ NN other
தலைவராக RB other
உள்ள PSP other
சமூக JJ other
ஜனநாயக JJ p
கட்சியின் NN other
சார்பாக RB other
அவர் PRP other
போட்டியிட்டார் VM other
. SYM other
newline
உந்க் NN other
newline
newline
முன்னதாக RB other
நடைபெற்ற VM other
முதலாவது QO other
சுற்று NN other
வாக்குப் NN other
பதிவின்போது VM other
ஜூசானா NN p
40 QC other
சதவீத JJ other
வாக்குகளையும் NN other
, SYM other
செஃபோகோவிக் NN p
19 QC other
சதவீத JJ other
வாக்குகளையும் NN other
பெற்றிருந்தார் VM other
என்பது UT other
குறிப்பிடத்தக்கது VM other
. SYM other
newline
மக்களவை NN other
தேர்தல் NN other
அடுத்த VM other
மாதம் NN other
11 QC other
ம் SYM other
தேதி NN other
தொடங்கி VM other
7 QC other
கட்டங்களாக RB other
நாடு NN other
முழுவதும் NN other
நடைபெற VM other
உள்ளது VM other
. SYM other
newline
உந்க் NN other
newline
newline
பாஜக JJ other
, SYM other
காங்கிரச் NN o
உள்ளிட்ட JJ other
அனைத்து JJ other
கட்சிகளும் NN other
தொகுதி NN other
பங்கீடு NN other
, SYM other
வேட்பாளர் NN other
தேர்வு NN other
உள்ளிட்ட JJ other
வேலைகளில் NN other
ஈடுப்பட்டு VM other
வருகிறனர் VAUX other
. SYM other
newline
உந்க் NN other
newline
newline
இந்த DEM other
சூழலில் NN other
ராகுல் NN p
காந்தி NNP p
தென் NN other
இந்தியாவில் NN l
ஒரு QC other
தொகுதியில் NN other
போட்டியிடுகிறார் VM other
என்ற VM other
பேச்சு NN other
கடந்த VM other
சில QF other
நாட்களாக RB other
இருந்து VM other
வந்தது VAUX other
. SYM other
newline
இந்நிலையில் NN other
, SYM other
நாடாளுமன்றத் JJ other
தேர்தலில் NN other
காங்கிரச் NN o
தலைவர் NN other
ராகுல் NN p
காந்தி NNP p
கேரளாவின் NNP other
வயநாடு NNP other
தொகுதியிலும் NN other
போட்டியிடுகிறார் VM other
என்று UT other
காங்கிரச் NNP o
மூத்த JJ other
தலைவர் NN other
தலைவர் NN other
. SYM other
newline
இது PRP other
தொடர்பாக RB other
செய்தியாளர்களை NN other
சந்தித்த VM other
அவர் PRP other
, SYM other
காங்கிரச் NNP o
தலைவர் NN other
ராகுல் NN p
காந்தி NNP p
கேரளா NNP l
மாநிலம் NN other
வயநாடு NN l
தொகுதியில் NN other
போட்டியிடுகிறார் VM other
. SYM other
newline
உந்க் NN other
newline
newline
இதன் PRP other
மூலம் PSP other
உத்தரபிரதேசம் NN other
மாநிலம் NN other
அமேதி NN other
தொகுதியிலும் NN other
, SYM other
கேரளாவின் NNP l
வயநாடு NN l
தொகுதியிலும் NN other
ராகுல் NN p
காந்தி NNP p
போட்டியிடுவது VM other
உறுதியாகியது VM other
. SYM other
newline
உந்க் NN other
newline
newline
புவியியல் NN other
மற்றும் CC other
கலாசார JJ other
காரணங்களுக்காக RB other
வயநாடு NN other
தொகுதியை NN other
தேர்ந்தெடுத்தோம் NN other
என்கிறார் VM other
காங்கிரச் NNP o
செய்தித் VM other
தொடர்பாளர் NN other
ரன்தீப் NN other
சிங் NN other
. SYM other
newline
உந்க் NN other
newline
newline
ஏப்ரல் NN d
23 QC d
கேரளாவில் NNP l
தேர்தல் NN other
நடக்க VM other
இருக்கிறது VAUX other
. SYM other
newline
வயநாடு NNP l
தொகுதி NN other
2008 QC d
ஆம் QO other
ஆண்டு NN other
உருவாக்கப்பட்டது VM other
. SYM other
newline
உந்க் NN other
newline
newline
இரண்டு QC other
முறையும் NN other
ஷானாவாசே NNP other
இந்தத் DEM other
தொகுதியின் NN other
நாடாளுமன்ற VM other
உறுப்பினராக RB other
இருந்தார் VM other
. SYM other
newline
உந்க் NN other
newline
newline
2009 QC d
ஆம் QO other
ஆண்டு NN other
ஷானாவாச் NNP p
152439 QC other
வாக்குகள் NN other
வித்தியாசத்தில் NN other
வென்றார் VM other
. SYM other
newline
உந்க் NN other
newline
newline
வயநாடு NNP l
தொகுதியில் NN other
பாரதிய VM o
ஜனதா NNP o
கட்சி NN o
பலவீனமாக RB other
இருப்பதாக RB other
தரவுகள் VM other
கூறுகிறன VM other
. SYM other
newline
உந்க் NN other
newline
newline
2014 QC d
மக்களவைத் NN other
தேர்தலில் NN other
அதன் PRP other
வேட்பாளர் NN other
பெற்ற VM other
வாக்குகள் NN other
80 QC other
, SYM other
752. QC other
உந்க் NN other
newline
newline
உந்க் NN other
newline
newline
இத்தொகுதியில் NN other
சிபிஐ NN other
சார்பாக RB other
பிபி NN other
சுனீர் NN other
போட்டியிடுகிறார் VM other
. SYM other
newline
உந்க் NN other
newline
newline
சிறு NN other
வயதாக RB other
இருக்கும் VM other
போது PSP other
எங்களது PRP other
குடும்பம் NN other
மிகவும் RB other
செல்வச் VM other
செழிப்பாக RB other
இருந்தது VM other
. SYM other
newline
உந்க் NN other
newline
newline
பாத்திரக்கடை NN other
தொடங்கி VM other
, SYM other
பைக் NN 
ஷோரூம் NN other
வரை PSP other
சேல்ச் NN other
, SYM other
மார்கெட்டிங் NN other
என்று UT other
நிறைய QF other
புதிய JJ other
விஷயங்கள் NN other
அறிமுகமாயின VM other
. SYM other
newline
உந்க் NN other
newline
newline
வறுமை NN other
காரணமாக RB other
குடும்பம் NN other
சிதற VM other
ஆரம்பித்தது VAUX other
. SYM other
newline
உந்க் NN other
newline
newline
கைநீட்டி NNP other
சம்பளம் NN other
வாங்கும் VM other
நிலையிலிருந்து NN other
சொந்தமாக RB other
தொழில் NN other
தொடங்கினால்தான் VM other
அடுத்த JJ other
கட்டத்தை NN other
எட்ட VM other
முடியும் VAUX other
என்று UT other
உணர்ந்தேன் VM other
. SYM other
newline
உந்க் NN other
newline
newline
ஆசை NN other
மட்டும் PSP other
இருந்தால் VM other
போதாது PSP other
தொழில் NN other
தொடங்க VM other
பணம் NN other
வேண்டுமே VM other
. SYM other
newline
உந்க் NN other
newline
newline
எந்த DEM other
பண JJ other
இருப்பும் NN other
இல்லாமல் NEG other
, SYM other
அலுவலகம் NN other
இல்லாமல் NEG other
நான் PRP other
துவங்கிய VM other
முதல் QC other
அட்வர்டைசிங் NN other
நிறுவனம் NN other
newline
உந்க் NN other
newline
newline
அதற்கிடையே PRP other
அட்வர்டைசிங் NN other
துறையில் NN other
பரிட்சயமான JJ other
என் PRP other
தோழியின் NN other
நண்பர் NN other
ஜான் NNP p
என்ற VM other
அவரை PRP other
எனக்கு PRP other
பிடித்திருந்தது VM other
. SYM other
newline
உந்க் NN other
newline
newline
மதம் NN other
, SYM other
தொழில் NN other
என்று UT other
எவை NN other
எல்லாம் NN other
காதலிக்கும் VM other
போது PSP other
ஒரு QC other
பொருட்டாக RB other
தெரியாமல் RB other
இருந்ததோ VM other
, SYM other
அதுவே PRP other
திருமண JJ other
உறவில் NN other
பெரும் JJ other
பிரச்சனையாக RB other
உருவெடுத்தது VM other
. SYM other
newline
உந்க் NN other
newline
newline
என்னுடைய PRP other
கர்ப்ப JJ other
காலத்திலேயே NN other
எனக்கு PRP other
பெண் NN other
குழந்தைதான் NN other
பிறக்கும் VM other
என்று UT other
எண்ணி VM other
கொண்டு VAUX other
இருந்தேன் VM other
. SYM other
newline
உந்க் NN other
newline
newline
அதற்கிடையே PRP other
பெண்களுக்கு NN other
ஆன JJ other
பிளவுச் NN other
, SYM other
சல்வார் NNP other
போன்ற JJ other
ஆடைகளையும் NN other
தைத்து VM other
பழக JJ other
துவங்கினேன் VM other
. SYM other
newline
உந்க் NN other
newline
newline
என் PRP other
குழந்தை NN other
பிறக்கும் VM other
போது PSP other
நான் PRP other
பிளவுச் NN other
, SYM other
சல்வார் NNP other
இரண்டிலும் NN other
முழுமையாக RB other
கற்றுத்தேர்ந்து VM other
இருந்தேன் VM other
. SYM other
newline
உந்க் NN other
newline
newline
ஆடையில் NN other
பெண்களை NN other
திருப்திப்படுத்துவது VM other
சற்று RB other
கடினம் NN other
என்றாலும் VM other
அதற்காக RB other
ஆடை NN other
தயாரிப்பில் NN other
முழு NN p
கவனம் NN p
செலுத்தி VM other
நுணுக்கமான JJ other
விஷயங்களை NN other
செய்து VM other
வாடிக்கையாளர்களை NN other
என் PRP other
பக்கம் NN other
ஈர்த்தேன் VM other
. SYM other
newline
உந்க் NN other
newline
newline
ஒரு QC other
கட்டத்தில் NN other
என் PRP other
கணவர் NN other
என்னை PRP other
வீட்டை NN other
விட்டு VM other
வெளியேற VM other
சொல்லிவிட்டார் VAUX other
. SYM other
newline
உந்க் NN other
newline
newline
ஆறுமாத JJ other
காலம் NN other
உணவுக்கே NN other
திண்டாட்டமாக RB other
இருந்தது VM other
. SYM other
newline
உந்க் NN other
newline
newline
ஜூன்பெரி NNP o
நிறுவனத்தில் NN other
அனைத்து JJ other
ஆடைகளும் NN other
6 QC other
மாதம் NN other
இலவசமாக RB other
தைத்துக்கொடுக்கப்படும் VM other
என்று UT other
அறிவித்திருந்தேன் VM other
. SYM other
newline
உந்க் NN other
newline
newline
என்னுடைய PRP other
நுணுக்கமான JJ other
கிரியேட்டிவிட்டியை NN other
பயன்படுத்தி VM l
வாடிக்கையாளர்களை NN other
என் PRP other
பக்கம் NN other
ஈர்த்தேன் VM other
. SYM other
newline
உந்க் NN other
newline
newline
பின்னர் NN other
கோவையில் NN p
கிடைக்காத NEG other
துணி NN other
ரகங்களை NN other
தாய்லாந்திலிருந்து NN other
இறக்கமதி NN other
செய்து VM other
கிரியேட்டிவ் NN other
கவுன்களை NN other
தயாரித்தேன் VM other
. SYM other
newline
உந்க் NN other
newline
newline
ஃபேச்புக் NNC o
மார்க்கெட்டிங் NN other
, SYM other
வாட்ச் NN other
- SYM other
ஆப் QC other
உத்திகள் NN other
என்று UT other
அனைத்தையும் NN other
விற்பனைக்கு NN other
பயன்படுத்தினேன் VM other
. SYM other
newline
உந்க் NN other
newline
newline
திரைத்துறையில் NN other
நுழைந்தேன் VM other
உந்க் NN other
newline
newline
பெருநிறுவனங்கள் NN other
போட்டியில் NN other
இருந்தபோதும் VM other
கோவையில் NNP other
என்னுடைய PRP other
கவுன்கள் NN other
தனித்துவம் NN other
பெற்றிருந்தது VM other
. SYM other
newline
உந்க் NN other
newline
newline
திரைத்துறையில் NN other
முதல் QC other
அடி NN other
என்பதால் UT other
` SYM other
ஜகஜால JJ other
கில்லாடி NNP other
' SYM other
படத்தில் NN other
இன்பிலிம் NN other
பிராண்டிங் NN other
காண்ட்டிராக்ட் NN p
செய்து VM other
பணியாற்றினேன் VAUX other
. SYM other
newline
உந்க் NN other
newline
newline
அழகு NN other
என்பது UT other
இன்றைக்கு NN other
முக்கியத்துவம் NN other
வாய்ந்ததாக RB other
உள்ள PSP other
நிலையில் NN other
ஆடைக்கு NN other
அதற்கான JJ other
செலவுகள் NN other
அதிகம் NN other
. SYM other
newline
உந்க் NN other
newline
newline
அதேபோல் PRP other
சௌபர்னிகா NNP p
டிசைன் NN other
செய்த VM other
ஆடையை NN other
உடுத்த VM other
வேண்டும் VAUX other
என்ற VM other
எண்ணத்தை NN other
அனைவரிடமும் NN other
உருவாக்க VM other
வேண்டும் VAUX other
என்பது UT other
என்னுடைய PRP other
விருப்பம் NN other
. SYM other
newline
உந்க் NN other
newline
newline
என் PRP other
மகள் NN other
3 QC other
வயதிற்குள் NN other
அதிக JJ other
தியாகம் NN other
செய்துவிட்டாள் VM other
. SYM other
newline
உந்க் NN other
newline
newline
நல்ல JJ other
கல்வி NN other
, SYM other
பாதுகாப்பு NN other
போன்றவற்றை NN other
அவள் PRP other
பெரியவள் NN other
ஆகும் VM other
வரை PSP other
கொடுப்பதற்கான JJ other
அடித்தளத்தில் NN other
நான் PRP other
பணியாற்றி NN other
கொண்டு VM other
இருக்கிறேன் VM other
. SYM other
newline
உந்க் NN other
newline
newline
சாதிக்கத் JJ other
துடிக்கும் NN other
ஆற்றலும் NN other
தளராத NEG other
நம்பிக்கையும் NN other
சற்றும் RB other
குறையாமல் RB other
பேசுகிறார் VM other
` SYM other
தாயும் NN other
நானே PRP other
தந்தையும் NN other
நானே PRP other
என்று UT other
சொல்லும் VM other
' SYM other
சௌபர்ணிகா NNP p
. SYM other
newline
உந்க் NN other
newline
newline
விபத்துக்கு NN other
உள்ளான JJ other
விமானத்தின் NN other
இறுதி NN other
நொடிகள் NN other
குறித்த VM other
தகவல்கள் NN other
இப்போது RB other
வெளியாக RB other
உள்ளன VM other
. SYM other
newline
உந்க் NN other
newline
newline
விமானத்தின் NN other
ரேடியோ NN p
சிக்னல் NN p
துண்டிக்கப்படுவதற்கு NN other
முன்பு RB other
ஒரு QC other
விமானி NN other
மற்றொரு JJ other
விமானியிடம் NN other
' SYM other
பிட்ச் NN other
அப் NN other
, SYM other
பிட்ச் NN other
அப் NN other
' SYM other
என்று UT other
கூறுவது VM other
பதிவாகி RB other
உள்ளது VM other
. SYM other
newline
உந்க் NN other
newline
newline
இந்தியாவின் NNP other
விண்வெளி NN other
ஆய்வு NN other
நிறுவனமான JJ other
இச்ரோவை NN other
அமைத்ததில் NN other
நாட்டின் NN other
முதல் QC other
பிரதமரான JJ other
ஜவஹர்லால் NN p
நேருவுக்கு NN p
எவ்வித JJ other
பங்கும் NN other
இல்லை NEG other
என்று UT other
சமூக JJ other
ஊடகங்களில் NN other
தீவிரமாக RB other
தகவல் NN other
பரப்பப்பட்டு VM other
வருகிறது VAUX other
. SYM other
newline
உந்க் NN other
newline
newline
செயற்கைக்கோள் NN other
எதிர்ப்பு NN other
ஏவுகணையை NN other
இந்தியா NNP l
வெற்றிகரமாக RB other
பரிசோதனை NN other
செய்துள்ளதாக RB other
இந்திய JJ other
பிரதமர் NN other
நரேந்திர JJ p
மோதி NN p
கடந்த VM other
புதன் NN other
கிழமை NN other
அறிவித்த VM other
நிலையில் NN other
, SYM other
இதுபோன்ற JJ other
தகவல்கள் NN other
பரப்பப்பட்டு VM other
வருகிறன VAUX other
. SYM other
newline
உந்க் NN other
newline
newline
எவரும் NN other
எதிர்பார்க்காத NEG other
வேளையில் NN other
மோதி NN other
நிகழ்த்திய VM other
இந்த DEM other
உரையில் NN other
, SYM other
இந்தியா NNP l
" SYM other
விண்வெளித்துறையில் NN other
வல்லரசாக RB other
உருவெடுத்துள்ளதாக RB other
" SYM other
அறிவித்தார் VM other
. SYM other
newline
உந்க் NN other
newline
newline
குறுங்கோள் NN other
ஒன்று NN other
6.6 QC other
கோடி NN other
ஆண்டுகளுக்கு NN other
முன்பு RB other
, SYM other
பூமியில் NN other
விழுந்தபோது VM other
டையனோசர்கள் NN other
ஒட்டுமொத்தமாக RB other
அழிந்ததற்கான JJ other
புதை NN other
படிமங்களை NN other
விஞ்ஞானிகள் NN other
கண்டறிந்துள்ளனர் VM other
. SYM other
newline
உந்க் NN other
newline
newline
அமெரிக்காவின் NN l
வடக்கு NN other
டக்கோட்டா NNP other
மாகாணத்தில் NN other
நடைபெற்ற VM other
அகழ்வாராய்ச்சியின்போது RB other
பூமியை NN other
தாக்கிய VM other
குறுங்கோளால் NN other
குறுங்கோளால் NN other
மீன்கள் NN other
, SYM other
மரங்கள் NN other
ஆகியவற்றின் NN other
புதைபடிமங்கள் NN other
வாயிலாக RB other
இது PRP other
தெரியவந்துள்ளது VM other
. SYM other
newline
உந்க் NN other
newline
newline
அதுமட்டுமின்றி RB other
, SYM other
குறுங்கோள் NN other
தாக்கத்தின் NN other
காரணமாக RB other
கடலில் NN other
ஏற்பட்ட VM other
மாற்றங்கள் NN other
குறித்தும் RB other
அதன் PRP other
மூலம் PSP other
தெரியவந்துள்ளது VM other
. SYM other
newline
உந்க் NN other
newline
newline
இதுகுறித்த JJ other
விவரங்கள் NN other
பிஎனேஎச் NN other
என்னும் VM other
அறிவியல் NN other
சஞ்சிகையில் NN other
வெளியிடப்பட்டு VM other
உள்ளது VM other
. SYM other
newline
உந்க் NN other
newline
newline
கடந்த VM other
டிசம்பர் NN other
மாதம் NN other
மூளைச் NNC other
சாவு NN other
அடைந்த VM other
26 QC other
வயது NN other
பெண்ணுக்கு NN other
ஆண் NN other
குழந்தை NN other
பிறந்துள்ளது VM other
. SYM other
newline
உந்க் NN other
newline
newline
கடுமையான JJ other
ஆச்துமாவால் NN other
பாதிப்படைந்த VM other
சர்வதேச JJ other
விளையாட்டு NN other
வீராங்கனையான JJ other
கேத்ரீனா NN other
செக்கேரா NNP other
கடந்த VM other
ஆண்டு NN other
டிசம்பர் NN other
மாதம் NN other
மூளைச் NNC other
சாவு NN other
அடைந்தார் VM other
. SYM other
newline
உந்க் NN other
newline
newline
32 QC other
வார JJ other
கர்ப்பிணியான JJ other
கேத்ரீனாவுக்கு NN l
மகப்பேறு NN other
மருத்துவமனை NNP other
ஒன்றில் NN other
சிகிச்சை NN other
அளிக்கப்பட்டு VM other
வந்த VM other
சூழ்நிலையில் NN other
, SYM other
அவருக்கு PRP other
சால்வடார் VM other
என்று UT other
பெயரிடப்பட்டு VM other
உள்ள PSP other
குழந்தை NN other
பிறந்துள்ளது VM other
. SYM other
newline
உந்க் NN other
newline
newline
மூளைச் NN other
சாவு NN other
அடைந்த VM other
பெண்ணொருவருக்கு NN other
குழந்தை NN other
பிறப்பது VM other
போர்ச்சுகல் NN other
வரலாற்றில் NN other
இது PRP other
இரண்டாவது QO other
முறை NN other
ஆகும் VM other
. SYM other
newline
உந்க் NN other
newline
newline
ஆச்திரேலியாவின் NN other
அடிலெய்டு NN l
ஓவல் NN l
மைதானத்தில் NN other
நடைபெறும் VM other
விளையாட்டு NN other
போட்டியை NN other
காண VM other
வந்த VM other
பூர்வகுடி NN other
மக்களுக்கு NN other
டிக்கெட் NN other
வழங்கக் VM other
கூடாது NEG other
என்று UT other
தனக்கு PRP other
உயரதிகாரிகள் NN other
உத்தரவிட்டுள்ளதாக RB other
அதன் PRP other
ஊழியர் NN other
ஒருவர் NN other
கூறியுள்ளார் VM other
. SYM other
newline
உந்க் NN other
newline
newline
பூர்வகுடிகளின் NN other
கலாசாரத்தை NN other
கடந்த VM other
ஆண்டு NN other
கொண்டாடிய VM other
ஆசி NN 
ரூல்ச் NN other
கால்பந்து VM p
போட்டியை NNP other
காண VM other
வந்த VM other
அந்நாட்டின் NN other
பூர்வகுடி NNP other
மக்கள் NN other
மைதானத்துக்குள் NN other
நுழைவதற்கு VM other
அதிகாரிகள் NN other
மறுப்புத் NN other
தெரிவித்துள்ளனர் VM other
. SYM other
newline
உந்க் NN other
newline
newline
இந்த DEM other
குறிப்பிட்ட JJ other
போட்டிக்கான JJ other
டிக்கெட்டுகள் NN other
விற்று VM other
தீர்ந்துவிட்டதாக RB other
கூறுமாறு RB other
அதிகாரிகள் NN other
தன்னிடம் PRP other
கூறியதாக RB other
டிக்கெட் NN other
வழங்குநர் VM other
இது PRP other
குறித்து RB other
விளக்கம் NN other
அளித்துள்ளார் VM other
. SYM other
newline
செயற்கைக்கோள் NN other
எதிர்ப்பு NN other
ஏவுகணையை NN other
இந்தியா NNP l
வெற்றிகரமாக RB other
பரிசோதனை NN other
செய்துள்ளதாக RB other
இந்திய JJ other
பிரதமர் NN other
நரேந்திர JJ p
மோதி NN p
கடந்த VM other
புதன் NN other
கிழமை NN other
அறிவித்த VM other
நிலையில் NN other
, SYM other
இதுபோன்ற JJ other
தகவல்கள் NN other
பரப்பப்பட்டு VM other
வருகிறன VAUX other
. SYM other
newline
உந்க் NN other
newline
newline
எவரும் NN other
எதிர்பார்க்காத NEG other
வேளையில் NN other
மோதி NN other
நிகழ்த்திய VM other
இந்த DEM other
உரையில் NN other
, SYM other
இந்தியா NNP l
" SYM other
விண்வெளித்துறையில் NN other
வல்லரசாக RB other
உருவெடுத்துள்ளதாக RB other
" SYM other
அறிவித்தார் VM other
. SYM other
newline
உந்க் NN other
newline
newline
பிரதமர் NN other
வெளியிட்ட VM other
இந்த DEM other
அறிவிப்பு NN other
குறித்து RB other
பல்வேறு JJ other
வலதுசாரி NN other
ஆதரவு NN other
சமூக JJ other
ஊடக JJ other
குழுக்களில் NN other
பாராட்டுகள் NN other
குவிந்த VM other
நிலையில் NN other
, SYM other
எதிர்வரும் NN other
மக்களவை NN other
பொதுத் NN other
தேர்தலுக்காக RB other
அரசியல் NN other
ஆதாயம் NN other
தேடும் VM other
வகையில் NN other
இந்த DEM other
அறிவிப்பு NN other
உள்ளதாக RB other
எதிர்க்கட்சிகள் NN other
குற்றஞ்சாட்டின VM other
. SYM other
newline
உந்க் NN other
newline
newline
தற்போது RB other
சமூக JJ other
ஊடகங்களில் NN other
பரப்பப்பட்டு VM other
வரும் VM other
தகவலில் NN other
, SYM other
நேரு NN p
1964 QC other
ஆம் QO other
ஆண்டு NN other
மே NN other
27 QC other
ஆம் QO other
தேதி NN other
உயிரிழந்த VM other
நிலையில் NN other
, SYM other
இச்ரோ NN o
அமைப்பு NN other
1969 QC other
ஆம் QO other
ஆண்டு NN other
ஆகச்டு NN other
மாதம் NN other
15 QC other
ஆம் NN other
தேதி NN other
தோற்றுவிக்கப்பட்டதாக RB other
குறிப்பிடப்பட்டு VM other
உள்ளது VM other
. SYM other
newline
உந்க் NN other
newline
newline
இதுதொடர்பாக RB other
பல்வேறு JJ other
ஃபேச்புக் NN other
மற்றும் CC other
ட்விட்டர் NN l
குழுக்களில் NN other
பகிரப்பட்டு NN other
உள்ள PSP other
புகைப்படங்கள் NN other
மற்றும் CC other
கட்டுரைகள் NN other
தவறான JJ other
தகவலை NN other
பரப்புவதை NN other
கண்டறிந்துள்ளோம் VM other
. SYM other
newline
இச்ரோ NN o
அமைப்பை NN other
தோற்றுவித்ததில் NN other
நேருவுக்கு NN other
எவ்வித JJ other
பங்கும் NN other
இல்லை NEG other
என்று RB other
பரப்பப்பட்டு VM other
வரும் VM other
தகவல் NN other
முற்றிலும் RB other
தவறானது VM other
. SYM other
newline
உந்க் NN other
newline
newline
நேரு NN other
இறப்பதற்கு NN other
இரண்டாண்டுகளுக்கு NN other
முன்பு NN other
, SYM other
அதாவது RB other
1962 QC other
ஆம் QO other
ஆண்டே NN other
இச்ரோவின் NN other
முன்னோடி NN other
அமைப்பான JJ other
இந்திய JJ other
தேசிய JJ other
விண்வெளி NN other
ஆராய்ச்சிக்கானக் JJ other
குழு NN other
உந்க் NN other
newline
newline
உந்க் NN other
newline
newline
இந்திய JJ other
தேசிய JJ other
விண்வெளி NN other
ஆராய்ச்சிக்கானக் JJ other
குழுவானது NN other
அன்றைய JJ other
பிரதமர் NN other
ஜவஹர்லால் NN p
நேரு NN p
மற்றும் CC other
பிரபல JJ other
விஞ்ஞானியான JJ other
விக்ரம் NN other
சாராபாயால் NN other
ஏற்படுத்தப்பட்டது VM other
. SYM other
newline
உந்க் NN other
newline
newline
இச்ரோவை NN o
தோற்றுவித்ததில் NN other
முன்னாள் NN other
பிரதமர் NN other
நேரு NN other
தலைமையிலான JJ other
மத்திய JJ other
அரசுக்கும் NN other
, SYM other
விஞ்ஞானி NN other
சாராபாய்க்கும் NN other
உள்ள PSP other
பங்களிப்பு NN other
குறித்து RB other
அந்த DEM other
அமைப்பின் NN other
இணையதளத்திலேயே NN other
குறிப்பிடப்பட்டு VM other
உள்ளது VM other
. SYM other
newline
உந்க் NN other
newline
newline
" SYM other
1962 QC other
ஆம் QO other
ஆண்டு NN other
இந்திய JJ other
அரசாங்கத்தினால் NN other
தேசிய JJ other
விண்வெளி NN other
ஆராய்ச்சிக்கானக் JJ other
குழு NN other
அமைக்கப்பட்டது VM other
. SYM other
newline
உந்க் NN other
newline
newline
பின்னர் NN other
, SYM other
1969 QC other
ஆம் QO other
ஆண்டு NN other
தேசிய JJ other
விண்வெளி NN other
ஆராய்ச்சிக் NN other
குழு NN other
, SYM other
நாட்டின் NN other
தற்போதைய JJ other
தேசிய JJ other
விண்வெளி NN other
ஆராய்ச்சி NN other
மையமான JJ other
இச்ரோவாக RB o
உருவெடுத்தது VM other
. SYM other
newline
உந்க் NN other
newline
newline
இச்ரோ NN o
தோற்றுவிக்கப்பட்டபோது VM other
, SYM other
இந்தியாவின் NNP l
பிரதமராக NNP 
இந்திரா NNP p
காந்தி NNP p
இருந்தார் VM other
. SYM other
newline
உந்க் NN other
newline
